<?xml version="1.0" encoding="UTF-8" standalone="no"?>
<svg width="490px" height="374px" viewBox="0 0 490 374" version="1.1" xmlns="http://www.w3.org/2000/svg" xmlns:xlink="http://www.w3.org/1999/xlink">
    <!-- Generator: Sketch 40.3 (33839) - http://www.bohemiancoding.com/sketch -->
    <title>travel</title>
    <desc>Created with Sketch.</desc>
    <g id="Page-1">
        <g id="travel">
            <g id="Group">
                <g id="Shape">
                    <g>
                        <path d="M375.8,187 C375.8,290.3 292.1,374 188.8,374 C85.5,374 1.8,290.3 1.8,187 C1.8,83.7 85.5,0 188.8,0 C292,0 375.8,83.7 375.8,187 L375.8,187 Z" fill="#70BFC8"></path>
                        <g transform="translate(0.000000, 1.000000)" fill="#43B665">
                            <path d="M285.6,103.9 C285.6,103.9 245.6,112.2 231.2,104.5 C231.2,104.5 221.6,92.1 194.8,102.7 C194.8,102.7 147.6,131.1 147,159.4 C147,159.4 133.8,215.6 183.4,223.2 C183.4,223.2 235.4,206.1 242,226.2 C242,226.2 243.8,251 248.6,256.3 C248.6,256.3 256.4,267.7 255.8,274.6 C255.8,274.6 250.4,297.7 257.6,315.4 C257.6,315.4 262.4,330.8 261.8,335.5 C261.8,335.5 307.2,322.5 321.5,279.9 C321.5,279.9 329.9,250.3 330.5,242.7 C330.5,242.7 342.5,208.4 345.4,197.8 C345.4,197.8 356.1,165.9 338.2,170 C338.2,170 325.7,158.2 316.7,149.3 C307.7,140.6 290.4,106.9 285.6,103.9 L285.6,103.9 Z"></path>
                            <path d="M325.6,148.3 L275.4,102.2 C275.4,102.2 286.2,92.7 282.6,87.4 C279,82.1 271.3,89.2 264.7,89.2 C258.1,89.2 249.2,94.5 245.6,89.8 C242,85.1 239.6,86.3 236,89.2 C232.4,92.2 225.8,96.9 225.2,93.9 C224.6,90.9 213.9,92.1 213.2,89.2 C212.6,86.2 215,78 209.6,79.7 C204.2,81.5 196.5,87.4 195.3,90.3 C194.1,93.3 189.9,102.1 185.7,102.1 C181.5,102.1 170.8,104.5 169,100.9 C167.2,97.4 163.6,85.5 167.2,82 C170.8,78.5 188.3,82.2 187.5,77.9 C186.7,73.6 184.6,64.1 187.3,62.7 C189.9,61.4 197.1,46 201.9,44.2 C206.7,42.4 219.2,48.9 221,44.8 C221,44.8 221.6,32.4 219.2,30.6 C216.8,28.8 215,23.5 210.8,24.1 C206.6,24.7 204.8,28.8 207.8,30.6 C210.8,32.4 213.2,39.5 211.4,39.5 C209.6,39.5 193.5,40.7 192.9,36.5 C192.3,32.4 194.7,22.3 200.1,18.8 C205.5,15.3 216.8,15.8 220.4,17.6 C224,19.4 228.2,15.8 229.4,12.9 C230.6,9.9 212.4,0.1 207,0.1 C207,0.1 348.6,10.7 372.9,155.4 C372.9,155.4 357.8,105.7 347.7,102.7 C347.7,102.7 342.3,106.2 338.7,105.7 C335.1,105.1 317.2,93.9 316,96.8 C314.8,99.8 324.4,109.8 334.5,111 C344.7,112.2 345.3,113.4 345.9,118.7 C346.5,124 348.3,132.3 347.1,137.6 C345.9,142.9 338.7,158.9 325.6,148.3 L325.6,148.3 Z"></path>
                            <path d="M177.4,43.1 C177.4,43.1 172.6,46.1 170.2,50.2 C167.8,54.3 167.8,57.9 167.8,57.9 C167.8,57.9 170.8,59.7 173.9,59.7 C177,59.7 185.1,56.7 185.1,52.6 C185.2,48.4 177.4,43.1 177.4,43.1 L177.4,43.1 Z"></path>
                            <path d="M170.2,7.6 C170.2,7.6 155.9,24.7 148.7,26.5 C141.5,28.3 129.6,34.2 126.6,36.6 C123.6,39 113.5,34.8 119.4,30.1 C125.4,25.4 141.5,14.7 137.9,13.5 C134.3,12.3 118.2,23.5 111.6,28.3 C105,33 99.7,40.1 96.7,44.8 C93.7,49.5 94.3,61.9 87.7,64.3 C81.1,66.7 52.4,78.5 42.9,86.8 C33.3,95.1 23,101.2 18.9,109.4 C14.7,117.7 21,96.2 24.7,88.3 C24.7,88.3 50.1,43 108.1,14.7 C108.1,14.7 152.3,3.5 170.2,7.6 L170.2,7.6 Z"></path>
                            <path d="M2.9,215.6 C2.9,215.6 -3.1,183.7 3.5,180.7 C10.1,177.8 12.1,177.1 17.8,183.1 C23.6,189 31.5,199.1 34.5,204.4 C37.5,209.7 48.2,216.2 48.2,220.4 C48.2,224.5 45.8,234.6 48.2,239.3 C50.6,244 54.2,244.6 59.6,247 C65,249.4 75.1,252.9 81.1,258.2 C87.1,263.5 95.4,270 93.6,277.1 C91.8,284.2 88.2,294.8 89.4,299 C90.6,303.1 94.8,310.2 90,313.2 C85.2,316.2 81.6,315.6 82.2,320.9 C82.8,326.2 88.8,342.7 90.6,345.7 C90.8,345.6 16.3,313.9 2.9,215.6 L2.9,215.6 Z"></path>
                            <path d="M11.1,150 C12.3,145.9 15.3,125.2 11.7,125.2 C4.7,151.1 4.9,150.7 2.1,170.1"></path>
                        </g>
                    </g>
                    <g transform="translate(36.000000, 154.000000)" fill="#357180">
                        <path d="M161.286713,66.2 C158.502761,66.2 156.164242,63.9728386 156.052884,61.1888869 C155.941526,58.2935771 158.168687,55.7323415 161.063997,55.6209834 C174.426965,54.952835 188.458082,53.393822 202.934631,50.8325864 C205.829941,50.3871542 208.502535,52.2802413 209.059325,55.1755511 C209.504757,58.0708609 207.61167,60.7434546 204.71636,61.300245 C189.905737,63.8614805 175.31783,65.5318516 161.620787,66.2 L161.286713,66.2 L161.286713,66.2 Z M118.525215,65.0864193 L117.968424,65.0864193 C102.935085,63.4160483 88.4585358,60.2980223 75.0955675,55.9550576 C72.3116157,55.0641931 70.7526028,52.0575252 71.7548254,49.2735735 C72.64569,46.4896217 75.6523578,44.9306088 78.4363096,45.9328314 C91.1311295,50.05308 104.828172,53.0597478 119.193363,54.6187608 C122.088673,54.952835 124.204476,57.5140706 123.870402,60.5207385 C123.42497,63.0819741 121.197808,65.0864193 118.525215,65.0864193 L118.525215,65.0864193 Z M38.0133304,38.0264085 C37.0111078,38.0264085 36.0088852,37.8036923 35.2293787,37.246902 C22.7572749,29.3404791 11.3987518,19.7636851 1.48788367,8.96195238 C-0.51656158,6.84614906 -0.293845442,3.39404891 1.82195788,1.50096173 C3.93776119,-0.503483516 7.27850327,-0.280767378 9.28294852,1.83503594 C18.5256683,11.9686202 29.2160429,20.9886239 40.9086402,28.3382564 C43.3585177,29.8972694 44.1380242,33.1266534 42.5790112,35.687889 C41.5767886,37.1355439 39.7950595,38.0264085 38.0133304,38.0264085 L38.0133304,38.0264085 Z"></path>
                        <path d="M245.584772,52.0575252 C243.246252,52.0575252 241.130449,50.4985122 240.4623,48.1599928 C239.682794,45.376041 241.353165,42.4807312 244.137117,41.7012248 C250.707243,39.9194956 257.500085,37.9150504 264.292927,35.7992471 C267.076879,34.9083825 270.083547,36.4673955 270.974411,39.2513472 C271.865276,42.035299 270.306263,45.0419668 267.522311,45.9328314 C260.618111,48.1599928 253.713911,50.164438 247.032426,51.9461671 C246.586994,51.9461671 246.030204,52.0575252 245.584772,52.0575252 L245.584772,52.0575252 Z"></path>
                    </g>
                    <path d="M488.188318,101.915113 C480.569654,86.8271696 456.667961,96.5372323 450.841923,99.5249439 C450.841923,99.5249439 449.348067,100.421257 446.509741,101.915113 C426.193302,88.3210254 383.319641,60.9834641 368.829239,62.0291632 C365.990913,62.1785488 357.177164,66.2119595 358.969791,67.8552008 C373.908349,81.4492887 401.24591,105.948524 415.736312,118.795684 C388.846907,133.883627 353.741296,153.901295 339.250895,164.358286 C329.839603,158.233477 316.394901,150.465427 311.315791,150.764198 C310.120706,150.764198 306.236681,152.556825 307.132995,153.303753 C313.108418,158.831019 323.86418,168.391697 330.28776,174.068349 C328.943289,176.159747 327.89759,178.848687 329.540832,180.7907 C331.034688,182.583327 333.424857,183.47964 335.516255,183.927797 C336.263183,192.442775 337.458268,207.381333 338.354581,215.746926 C338.503967,216.792625 342.089221,214.850612 342.836148,213.954299 C346.272017,210.070274 347.915258,194.384788 348.811572,183.180869 C366.140299,177.952374 403.934851,162.266888 432.467497,150.01727 C433.961353,168.391697 437.247835,207.530719 439.339234,228.594086 C439.638005,231.13364 448.003597,226.353302 449.94561,224.261904 C459.805058,212.9086 463.689083,159.279176 464.884168,135.975026 C467.124952,135.078712 468.320036,134.48117 468.320036,134.48117 C473.996688,131.344073 495.657597,117.152442 488.188318,101.915113 L488.188318,101.915113 Z" fill="#ECCB19"></path>
                </g>
            </g>
        </g>
    </g>
</svg>